{
  "project_info": {
    "project_number": "744117983682",
    "firebase_url": "https://crosswords-90fb6.firebaseio.com",
    "project_id": "crosswords-90fb6",
    "storage_bucket": "crosswords-90fb6.appspot.com"
  },
  "client": [
    {
      "client_info": {
        "mobilesdk_app_id": "1:744117983682:android:f66ffe12eda8ca0b635e5b",
        "android_client_info": {
          "package_name": "com.crosswords"
        }
      },
      "oauth_client": [
        {
          "client_id": "744117983682-5d39ns58ofqvmbm5jalvif9i45iq3csk.apps.googleusercontent.com",
          "client_type": 1,
          "android_info": {
            "package_name": "com.crosswords",
            "certificate_hash": "6ebbafc7cbddb67ca959ee34e07cdf7fc3a8c0b9"
          }
        },
        {
          "client_id": "744117983682-8ods4n6vsv1fc7968d0g4f59t1o6u9k8.apps.googleusercontent.com",
          "client_type": 3
        }
      ],
      "api_key": [
        {
          "current_key": "AIzaSyB-6zooi_KhpvGcchbSvujjFr9RQnEt-po"
        }
      ],
      "services": {
        "appinvite_service": {
          "other_platform_oauth_client": [
            {
              "client_id": "744117983682-8ods4n6vsv1fc7968d0g4f59t1o6u9k8.apps.googleusercontent.com",
              "client_type": 3
            }
          ]
        }
      }
    }
  ],
  "configuration_version": "1"
}